microondas/teste/microondas.vcd
$date
	Sun Apr 23 15:15:31 2023
$end
$version
	Icarus Verilog
$end
$timescale
	1ps
$end
$scope module microondas_tb $end
$var wire 7 ! s_unidades [6:0] $end
$var wire 7 " s_minutos [6:0] $end
$var wire 7 # s_dezenas [6:0] $end
$var wire 1 $ ligar $end
$var reg 1 % clk100Hz $end
$var reg 1 & clrn $end
$var reg 1 ' porta_fechada $end
$var reg 1 ( startn $end
$var reg 1 ) stopn $end
$var reg 10 * teclado [9:0] $end
$scope module dut $end
$var wire 1 % clk100Hz $end
$var wire 1 & clrn $end
$var wire 1 ' porta_fechada $end
$var wire 1 ( startn $end
$var wire 1 ) stopn $end
$var wire 10 + teclado [9:0] $end
$var wire 4 , unidades [3:0] $end
$var wire 1 - timer_done $end
$var wire 7 . s_unidades [6:0] $end
$var wire 7 / s_minutos [6:0] $end
$var wire 7 0 s_dezenas [6:0] $end
$var wire 1 1 pgt_1Hz $end
$var wire 4 2 mins [3:0] $end
$var wire 1 3 loadn $end
$var wire 1 $ ligar $end
$var wire 4 4 dezenas [3:0] $end
$var wire 4 5 D [3:0] $end
$scope module digitar_tempo $end
$var wire 1 % clk100Hz $end
$var wire 1 6 enablen $end
$var wire 10 7 teclado [9:0] $end
$var wire 1 1 pgt_1Hz $end
$var wire 4 8 out_codificado [3:0] $end
$var wire 1 3 loadn $end
$var wire 1 9 i1 $end
$var wire 1 : i0 $end
$scope module clk_conversao $end
$var wire 1 % clk_in $end
$var reg 1 : clk_out $end
$var reg 7 ; contador [6:0] $end
$upscope $end
$scope module delay $end
$var wire 1 % clk $end
$var wire 1 3 clr $end
$var reg 3 < contador [2:0] $end
$var reg 1 9 delayed_output $end
$upscope $end
$scope module p_encoder $end
$var wire 1 6 enablen $end
$var wire 10 = teclado [9:0] $end
$var reg 4 > BCD [3:0] $end
$var reg 1 3 valido $end
$upscope $end
$scope module select $end
$var wire 1 : i0 $end
$var wire 1 9 i1 $end
$var wire 1 6 sel $end
$var reg 1 1 out $end
$upscope $end
$upscope $end
$scope module ligar_mag $end
$var wire 1 & clrn $end
$var wire 1 ' porta_fechada $end
$var wire 1 ( startn $end
$var wire 1 ) stopn $end
$var wire 1 - zero $end
$var wire 1 ? s $end
$var wire 1 @ r $end
$var wire 1 $ ligar $end
$scope module latchsr $end
$var wire 1 ? s $end
$var wire 1 @ r $end
$var reg 1 $ out $end
$upscope $end
$scope module sr $end
$var wire 1 & clrn $end
$var wire 1 ' porta_fechada $end
$var wire 1 ( startn $end
$var wire 1 ) stopn $end
$var wire 1 - zero $end
$var wire 1 ? s $end
$var wire 1 @ r $end
$upscope $end
$upscope $end
$scope module relogio $end
$var wire 1 1 clk $end
$var wire 1 & clrn $end
$var wire 4 A data [3:0] $end
$var wire 1 $ en $end
$var wire 1 3 loadn $end
$var wire 1 B zero_unidades $end
$var wire 1 C zero_minutos $end
$var wire 1 D zero_dezenas $end
$var wire 1 - zero $end
$var wire 1 E tc_unidades $end
$var wire 1 F tc_minutos $end
$var wire 1 G tc_dezenas $end
$var wire 4 H seg_unidades [3:0] $end
$var wire 4 I seg_dezenas [3:0] $end
$var wire 4 J minutos [3:0] $end
$scope module mins $end
$var wire 1 1 clk $end
$var wire 1 & clrn $end
$var wire 1 3 loadn $end
$var wire 1 F tc $end
$var wire 1 C zero $end
$var wire 1 G en $end
$var wire 4 K data [3:0] $end
$var reg 4 L unidades [3:0] $end
$upscope $end
$scope module s_dezenas $end
$var wire 1 1 clk $end
$var wire 1 & clrn $end
$var wire 1 3 loadn $end
$var wire 1 G tc $end
$var wire 1 D zero $end
$var wire 1 E en $end
$var wire 4 M data [3:0] $end
$var reg 4 N dezenas [3:0] $end
$upscope $end
$scope module s_unidades $end
$var wire 1 1 clk $end
$var wire 1 & clrn $end
$var wire 4 O data [3:0] $end
$var wire 1 $ en $end
$var wire 1 3 loadn $end
$var wire 1 E tc $end
$var wire 1 B zero $end
$var reg 4 P unidades [3:0] $end
$upscope $end
$upscope $end
$scope module setesegmentos $end
$var wire 4 Q minutos [3:0] $end
$var wire 4 R sec_dezenas [3:0] $end
$var wire 4 S sec_unidades [3:0] $end
$var reg 7 T seg_dezenas [6:0] $end
$var reg 7 U seg_minutos [6:0] $end
$var reg 7 V seg_unidades [6:0] $end
$upscope $end
$upscope $end
$upscope $end
$enddefinitions $end
#0
$dumpvars
b1111110 V
b1111110 U
b1111110 T
b0 S
b0 R
b0 Q
b0 P
b0 O
b0 N
b0 M
b0 L
b0 K
b0 J
b0 I
b0 H
0G
0F
0E
1D
1C
1B
b0 A
1@
0?
b0 >
b0 =
b0 <
b1 ;
0:
09
b0 8
b0 7
16
b0 5
b0 4
13
b0 2
01
b1111110 0
b1111110 /
b1111110 .
1-
b0 ,
b0 +
b0 *
1)
1(
0'
1&
1%
0$
b1111110 #
b1111110 "
b1111110 !
$end
#1000
0%
#2000
b10 ;
1%
#3000
0%
#4000
b11 ;
1%
#5000
0%
#6000
b100 ;
1%
#7000
0%
#8000
b101 ;
1%
#9000
0%
#10000
b110 ;
1%
#11000
0%
#12000
b111 ;
1%
#13000
0%
#14000
b1000 ;
1%
#15000
0%
#16000
b1001 ;
1%
#17000
0%
#18000
b1010 ;
1%
#19000
0%
#20000
b1011 ;
1%
#21000
0%
#22000
b1100 ;
1%
#23000
0%
#24000
b1101 ;
1%
#25000
0%
#26000
b1110 ;
1%
#27000
0%
#28000
b1111 ;
1%
#29000
0%
#30000
b10000 ;
1%
#31000
0%
#32000
b10001 ;
1%
#33000
0%
#34000
b10010 ;
1%
#35000
0%
#36000
b10011 ;
1%
#37000
0%
#38000
b10100 ;
1%
#39000
0%
#40000
b10101 ;
1%
#41000
0%
#42000
b10110 ;
1%
#43000
0%
#44000
b10111 ;
1%
#45000
0%
#46000
b11000 ;
1%
#47000
0%
#48000
b11001 ;
1%
#49000
0%
#50000
b11010 ;
1%
#51000
0%
#52000
b11011 ;
1%
#53000
0%
#54000
b11100 ;
1%
#55000
0%
#56000
b11101 ;
1%
#57000
0%
#58000
b11110 ;
1%
#59000
0%
#60000
b11111 ;
1%
#61000
0%
#62000
b100000 ;
1%
#63000
0%
#64000
b100001 ;
1%
#65000
0%
#66000
b100010 ;
1%
#67000
0%
#68000
b100011 ;
1%
#69000
0%
#70000
b100100 ;
1%
#71000
0%
#72000
b100101 ;
1%
#73000
0%
#74000
b100110 ;
1%
#75000
0%
#76000
b100111 ;
1%
#77000
0%
#78000
b101000 ;
1%
#79000
0%
#80000
b101001 ;
1%
#81000
0%
#82000
b101010 ;
1%
#83000
0%
#84000
b101011 ;
1%
#85000
0%
#86000
b101100 ;
1%
#87000
0%
#88000
b101101 ;
1%
#89000
0%
#90000
b101110 ;
1%
#91000
0%
#92000
b101111 ;
1%
#93000
0%
#94000
b110000 ;
1%
#95000
0%
#96000
b110001 ;
1%
#97000
0%
#98000
b110010 ;
1%
#99000
0%
#100000
b110011 ;
1%
1'
#101000
0%
#102000
b110100 ;
1%
#103000
0%
#104000
b110101 ;
1%
#105000
0%
#106000
b110110 ;
1%
#107000
0%
#108000
b110111 ;
1%
#109000
0%
#110000
b111000 ;
1%
#111000
0%
#112000
b111001 ;
1%
#113000
0%
#114000
b111010 ;
1%
#115000
0%
#116000
b111011 ;
1%
#117000
0%
#118000
b111100 ;
1%
#119000
0%
#120000
b111101 ;
1%
#121000
0%
#122000
b111110 ;
1%
#123000
0%
#124000
b111111 ;
1%
#125000
0%
#126000
b1000000 ;
1%
#127000
0%
#128000
b1000001 ;
1%
#129000
0%
#130000
b1000010 ;
1%
#131000
0%
#132000
b1000011 ;
1%
#133000
0%
#134000
b1000100 ;
1%
#135000
0%
#136000
b1000101 ;
1%
#137000
0%
#138000
b1000110 ;
1%
#139000
0%
#140000
b1000111 ;
1%
#141000
0%
#142000
b1001000 ;
1%
#143000
0%
#144000
b1001001 ;
1%
#145000
0%
#146000
b1001010 ;
1%
#147000
0%
#148000
b1001011 ;
1%
#149000
0%
#150000
b1001100 ;
1%
#151000
0%
#152000
b1001101 ;
1%
#153000
0%
#154000
b1001110 ;
1%
#155000
0%
#156000
b1001111 ;
1%
#157000
0%
#158000
b1010000 ;
1%
#159000
0%
#160000
b1010001 ;
1%
#161000
0%
#162000
b1010010 ;
1%
#163000
0%
#164000
b1010011 ;
1%
#165000
0%
#166000
b1010100 ;
1%
#167000
0%
#168000
b1010101 ;
1%
#169000
0%
#170000
b1010110 ;
1%
#171000
0%
#172000
b1010111 ;
1%
#173000
0%
#174000
b1011000 ;
1%
#175000
0%
#176000
b1011001 ;
1%
#177000
0%
#178000
b1011010 ;
1%
#179000
0%
#180000
b1011011 ;
1%
#181000
0%
#182000
b1011100 ;
1%
#183000
0%
#184000
b1011101 ;
1%
#185000
0%
#186000
b1011110 ;
1%
#187000
0%
#188000
b1011111 ;
1%
#189000
0%
#190000
b1100000 ;
1%
#191000
0%
#192000
b1100001 ;
1%
#193000
0%
#194000
b1100010 ;
1%
#195000
0%
#196000
b1100011 ;
1%
#197000
0%
#198000
1:
b0 ;
1%
#199000
0%
#200000
b1 ;
b1 <
03
b1 5
b1 8
b1 >
b1 A
b1 O
1%
b10 *
b10 +
b10 7
b10 =
#201000
0%
#202000
b10 ;
b10 <
1%
#203000
0%
#204000
b11 ;
b11 <
1%
#205000
0%
#206000
0@
0-
b110000 !
b110000 .
b110000 V
0B
b1 ,
b1 H
b1 M
b1 P
b1 S
11
b100 ;
19
b100 <
1%
#207000
0%
#208000
b101 ;
b101 <
1%
#209000
0%
#210000
b110 ;
b110 <
1%
#211000
0%
#212000
b111 ;
b111 <
1%
#213000
0%
#214000
b1000 ;
1%
#215000
0%
#216000
b1001 ;
1%
#217000
0%
#218000
b1010 ;
1%
#219000
0%
#220000
b1011 ;
1%
#221000
0%
#222000
b1100 ;
1%
#223000
0%
#224000
b1101 ;
1%
#225000
0%
#226000
b1110 ;
1%
#227000
0%
#228000
b1111 ;
1%
#229000
0%
#230000
b10000 ;
1%
#231000
0%
#232000
b10001 ;
1%
#233000
0%
#234000
b10010 ;
1%
#235000
0%
#236000
b10011 ;
1%
#237000
0%
#238000
b10100 ;
1%
#239000
0%
#240000
b10101 ;
1%
#241000
0%
#242000
b10110 ;
1%
#243000
0%
#244000
b10111 ;
1%
#245000
0%
#246000
b11000 ;
1%
#247000
0%
#248000
b11001 ;
1%
#249000
0%
#250000
b11010 ;
1%
#251000
0%
#252000
b11011 ;
1%
#253000
0%
#254000
b11100 ;
1%
#255000
0%
#256000
b11101 ;
1%
#257000
0%
#258000
b11110 ;
1%
#259000
0%
#260000
b11111 ;
1%
#261000
0%
#262000
b100000 ;
1%
#263000
0%
#264000
b100001 ;
1%
#265000
0%
#266000
b100010 ;
1%
#267000
0%
#268000
b100011 ;
1%
#269000
0%
#270000
b100100 ;
1%
#271000
0%
#272000
b100101 ;
1%
#273000
0%
#274000
b100110 ;
1%
#275000
0%
#276000
b100111 ;
1%
#277000
0%
#278000
b101000 ;
1%
#279000
0%
#280000
b101001 ;
1%
#281000
0%
#282000
b101010 ;
1%
#283000
0%
#284000
b101011 ;
1%
#285000
0%
#286000
b101100 ;
1%
#287000
0%
#288000
b101101 ;
1%
#289000
0%
#290000
b101110 ;
1%
#291000
0%
#292000
b101111 ;
1%
#293000
0%
#294000
b110000 ;
1%
#295000
0%
#296000
b110001 ;
1%
#297000
0%
#298000
b110010 ;
1%
#299000
0%
#300000
01
09
b110011 ;
b0 <
13
b0 5
b0 8
b0 >
b0 A
b0 O
1%
b0 *
b0 +
b0 7
b0 =
#301000
0%
#302000
b110100 ;
1%
#303000
0%
#304000
b110101 ;
1%
#305000
0%
#306000
b110110 ;
1%
#307000
0%
#308000
b110111 ;
1%
#309000
0%
#310000
b111000 ;
1%
#311000
0%
#312000
b111001 ;
1%
#313000
0%
#314000
b111010 ;
1%
#315000
0%
#316000
b111011 ;
1%
#317000
0%
#318000
b111100 ;
1%
#319000
0%
#320000
b111101 ;
1%
#321000
0%
#322000
b111110 ;
1%
#323000
0%
#324000
b111111 ;
1%
#325000
0%
#326000
b1000000 ;
1%
#327000
0%
#328000
b1000001 ;
1%
#329000
0%
#330000
b1000010 ;
1%
#331000
0%
#332000
b1000011 ;
1%
#333000
0%
#334000
b1000100 ;
1%
#335000
0%
#336000
b1000101 ;
1%
#337000
0%
#338000
b1000110 ;
1%
#339000
0%
#340000
b1000111 ;
1%
#341000
0%
#342000
b1001000 ;
1%
#343000
0%
#344000
b1001001 ;
1%
#345000
0%
#346000
b1001010 ;
1%
#347000
0%
#348000
b1001011 ;
1%
#349000
0%
#350000
b1001100 ;
1%
#351000
0%
#352000
b1001101 ;
1%
#353000
0%
#354000
b1001110 ;
1%
#355000
0%
#356000
b1001111 ;
1%
#357000
0%
#358000
b1010000 ;
1%
#359000
0%
#360000
b1010001 ;
1%
#361000
0%
#362000
b1010010 ;
1%
#363000
0%
#364000
b1010011 ;
1%
#365000
0%
#366000
b1010100 ;
1%
#367000
0%
#368000
b1010101 ;
1%
#369000
0%
#370000
b1010110 ;
1%
#371000
0%
#372000
b1010111 ;
1%
#373000
0%
#374000
b1011000 ;
1%
#375000
0%
#376000
b1011001 ;
1%
#377000
0%
#378000
b1011010 ;
1%
#379000
0%
#380000
b1011011 ;
1%
#381000
0%
#382000
b1011100 ;
1%
#383000
0%
#384000
b1011101 ;
1%
#385000
0%
#386000
b1011110 ;
1%
#387000
0%
#388000
b1011111 ;
1%
#389000
0%
#390000
b1100000 ;
1%
#391000
0%
#392000
b1100001 ;
1%
#393000
0%
#394000
b1100010 ;
1%
#395000
0%
#396000
b1100011 ;
1%
#397000
0%
#398000
0:
b0 ;
1%
#399000
0%
#400000
b1 ;
b1 <
03
b100 5
b100 8
b100 >
b100 A
b100 O
1%
b10000 *
b10000 +
b10000 7
b10000 =
#401000
0%
#402000
b10 ;
b10 <
1%
#403000
0%
#404000
b11 ;
b11 <
1%
#405000
0%
#406000
b110000 #
b110000 0
b110000 T
b110011 !
b110011 .
b110011 V
0D
b1 4
b1 I
b1 K
b1 N
b1 R
b100 ,
b100 H
b100 M
b100 P
b100 S
11
b100 ;
19
b100 <
1%
#407000
0%
#408000
b101 ;
b101 <
1%
#409000
0%
#410000
b110 ;
b110 <
1%
#411000
0%
#412000
b111 ;
b111 <
1%
#413000
0%
#414000
b1000 ;
1%
#415000
0%
#416000
b1001 ;
1%
#417000
0%
#418000
b1010 ;
1%
#419000
0%
#420000
b1011 ;
1%
#421000
0%
#422000
b1100 ;
1%
#423000
0%
#424000
b1101 ;
1%
#425000
0%
#426000
b1110 ;
1%
#427000
0%
#428000
b1111 ;
1%
#429000
0%
#430000
b10000 ;
1%
#431000
0%
#432000
b10001 ;
1%
#433000
0%
#434000
b10010 ;
1%
#435000
0%
#436000
b10011 ;
1%
#437000
0%
#438000
b10100 ;
1%
#439000
0%
#440000
b10101 ;
1%
#441000
0%
#442000
b10110 ;
1%
#443000
0%
#444000
b10111 ;
1%
#445000
0%
#446000
b11000 ;
1%
#447000
0%
#448000
b11001 ;
1%
#449000
0%
#450000
b11010 ;
1%
#451000
0%
#452000
b11011 ;
1%
#453000
0%
#454000
b11100 ;
1%
#455000
0%
#456000
b11101 ;
1%
#457000
0%
#458000
b11110 ;
1%
#459000
0%
#460000
b11111 ;
1%
#461000
0%
#462000
b100000 ;
1%
#463000
0%
#464000
b100001 ;
1%
#465000
0%
#466000
b100010 ;
1%
#467000
0%
#468000
b100011 ;
1%
#469000
0%
#470000
b100100 ;
1%
#471000
0%
#472000
b100101 ;
1%
#473000
0%
#474000
b100110 ;
1%
#475000
0%
#476000
b100111 ;
1%
#477000
0%
#478000
b101000 ;
1%
#479000
0%
#480000
b101001 ;
1%
#481000
0%
#482000
b101010 ;
1%
#483000
0%
#484000
b101011 ;
1%
#485000
0%
#486000
b101100 ;
1%
#487000
0%
#488000
b101101 ;
1%
#489000
0%
#490000
b101110 ;
1%
#491000
0%
#492000
b101111 ;
1%
#493000
0%
#494000
b110000 ;
1%
#495000
0%
#496000
b110001 ;
1%
#497000
0%
#498000
b110010 ;
1%
#499000
0%
#500000
01
09
b110011 ;
b0 <
13
b0 5
b0 8
b0 >
b0 A
b0 O
1%
b0 *
b0 +
b0 7
b0 =
#501000
0%
#502000
b110100 ;
1%
#503000
0%
#504000
b110101 ;
1%
#505000
0%
#506000
b110110 ;
1%
#507000
0%
#508000
b110111 ;
1%
#509000
0%
#510000
b111000 ;
1%
#511000
0%
#512000
b111001 ;
1%
#513000
0%
#514000
b111010 ;
1%
#515000
0%
#516000
b111011 ;
1%
#517000
0%
#518000
b111100 ;
1%
#519000
0%
#520000
b111101 ;
1%
#521000
0%
#522000
b111110 ;
1%
#523000
0%
#524000
b111111 ;
1%
#525000
0%
#526000
b1000000 ;
1%
#527000
0%
#528000
b1000001 ;
1%
#529000
0%
#530000
b1000010 ;
1%
#531000
0%
#532000
b1000011 ;
1%
#533000
0%
#534000
b1000100 ;
1%
#535000
0%
#536000
b1000101 ;
1%
#537000
0%
#538000
b1000110 ;
1%
#539000
0%
#540000
b1000111 ;
1%
#541000
0%
#542000
b1001000 ;
1%
#543000
0%
#544000
b1001001 ;
1%
#545000
0%
#546000
b1001010 ;
1%
#547000
0%
#548000
b1001011 ;
1%
#549000
0%
#550000
b1001100 ;
1%
#551000
0%
#552000
b1001101 ;
1%
#553000
0%
#554000
b1001110 ;
1%
#555000
0%
#556000
b1001111 ;
1%
#557000
0%
#558000
b1010000 ;
1%
#559000
0%
#560000
b1010001 ;
1%
#561000
0%
#562000
b1010010 ;
1%
#563000
0%
#564000
b1010011 ;
1%
#565000
0%
#566000
b1010100 ;
1%
#567000
0%
#568000
b1010101 ;
1%
#569000
0%
#570000
b1010110 ;
1%
#571000
0%
#572000
b1010111 ;
1%
#573000
0%
#574000
b1011000 ;
1%
#575000
0%
#576000
b1011001 ;
1%
#577000
0%
#578000
b1011010 ;
1%
#579000
0%
#580000
b1011011 ;
1%
#581000
0%
#582000
b1011100 ;
1%
#583000
0%
#584000
b1011101 ;
1%
#585000
0%
#586000
b1011110 ;
1%
#587000
0%
#588000
b1011111 ;
1%
#589000
0%
#590000
b1100000 ;
1%
#591000
0%
#592000
b1100001 ;
1%
#593000
0%
#594000
b1100010 ;
1%
#595000
0%
#596000
b1100011 ;
1%
#597000
0%
#598000
1:
b0 ;
1%
#599000
0%
#600000
b1111001 !
b1111001 .
b1111001 V
b11 ,
b11 H
b11 M
b11 P
b11 S
11
06
1$
b1 ;
1?
1%
0(
#601000
0%
#602000
b10 ;
1%
#603000
0%
#604000
b11 ;
1%
#605000
0%
#606000
b100 ;
1%
#607000
0%
#608000
b101 ;
1%
#609000
0%
#610000
b110 ;
1%
#611000
0%
#612000
b111 ;
1%
#613000
0%
#614000
b1000 ;
1%
#615000
0%
#616000
b1001 ;
1%
#617000
0%
#618000
b1010 ;
1%
#619000
0%
#620000
b1011 ;
1%
#621000
0%
#622000
b1100 ;
1%
#623000
0%
#624000
b1101 ;
1%
#625000
0%
#626000
b1110 ;
1%
#627000
0%
#628000
b1111 ;
1%
#629000
0%
#630000
b10000 ;
1%
#631000
0%
#632000
b10001 ;
1%
#633000
0%
#634000
b10010 ;
1%
#635000
0%
#636000
b10011 ;
1%
#637000
0%
#638000
b10100 ;
1%
#639000
0%
#640000
b10101 ;
1%
#641000
0%
#642000
b10110 ;
1%
#643000
0%
#644000
b10111 ;
1%
#645000
0%
#646000
b11000 ;
1%
#647000
0%
#648000
b11001 ;
1%
#649000
0%
#650000
b11010 ;
1%
#651000
0%
#652000
b11011 ;
1%
#653000
0%
#654000
b11100 ;
1%
#655000
0%
#656000
b11101 ;
1%
#657000
0%
#658000
b11110 ;
1%
#659000
0%
#660000
b11111 ;
1%
#661000
0%
#662000
b100000 ;
1%
#663000
0%
#664000
b100001 ;
1%
#665000
0%
#666000
b100010 ;
1%
#667000
0%
#668000
b100011 ;
1%
#669000
0%
#670000
b100100 ;
1%
#671000
0%
#672000
b100101 ;
1%
#673000
0%
#674000
b100110 ;
1%
#675000
0%
#676000
b100111 ;
1%
#677000
0%
#678000
b101000 ;
1%
#679000
0%
#680000
b101001 ;
1%
#681000
0%
#682000
b101010 ;
1%
#683000
0%
#684000
b101011 ;
1%
#685000
0%
#686000
b101100 ;
1%
#687000
0%
#688000
b101101 ;
1%
#689000
0%
#690000
b101110 ;
1%
#691000
0%
#692000
b101111 ;
1%
#693000
0%
#694000
b110000 ;
1%
#695000
0%
#696000
b110001 ;
1%
#697000
0%
#698000
b110010 ;
1%
#699000
0%
#700000
b110011 ;
1%
#701000
0%
#702000
b110100 ;
1%
#703000
0%
#704000
b110101 ;
1%
#705000
0%
#706000
b110110 ;
1%
#707000
0%
#708000
b110111 ;
1%
#709000
0%
#710000
b111000 ;
1%
#711000
0%
#712000
b111001 ;
1%
#713000
0%
#714000
b111010 ;
1%
#715000
0%
#716000
b111011 ;
1%
#717000
0%
#718000
b111100 ;
1%
#719000
0%
#720000
b111101 ;
1%
#721000
0%
#722000
b111110 ;
1%
#723000
0%
#724000
b111111 ;
1%
#725000
0%
#726000
b1000000 ;
1%
#727000
0%
#728000
b1000001 ;
1%
#729000
0%
#730000
b1000010 ;
1%
#731000
0%
#732000
b1000011 ;
1%
#733000
0%
#734000
b1000100 ;
1%
#735000
0%
#736000
b1000101 ;
1%
#737000
0%
#738000
b1000110 ;
1%
#739000
0%
#740000
b1000111 ;
1%
#741000
0%
#742000
b1001000 ;
1%
#743000
0%
#744000
b1001001 ;
1%
#745000
0%
#746000
b1001010 ;
1%
#747000
0%
#748000
b1001011 ;
1%
#749000
0%
#750000
b1001100 ;
1%
#751000
0%
#752000
b1001101 ;
1%
#753000
0%
#754000
b1001110 ;
1%
#755000
0%
#756000
b1001111 ;
1%
#757000
0%
#758000
b1010000 ;
1%
#759000
0%
#760000
b1010001 ;
1%
#761000
0%
#762000
b1010010 ;
1%
#763000
0%
#764000
b1010011 ;
1%
#765000
0%
#766000
b1010100 ;
1%
#767000
0%
#768000
b1010101 ;
1%
#769000
0%
#770000
b1010110 ;
1%
#771000
0%
#772000
b1010111 ;
1%
#773000
0%
#774000
b1011000 ;
1%
#775000
0%
#776000
b1011001 ;
1%
#777000
0%
#778000
b1011010 ;
1%
#779000
0%
#780000
b1011011 ;
1%
#781000
0%
#782000
b1011100 ;
1%
#783000
0%
#784000
b1011101 ;
1%
#785000
0%
#786000
b1011110 ;
1%
#787000
0%
#788000
b1011111 ;
1%
#789000
0%
#790000
b1100000 ;
1%
#791000
0%
#792000
b1100001 ;
1%
#793000
0%
#794000
b1100010 ;
1%
#795000
0%
#796000
b1100011 ;
1%
#797000
0%
#798000
01
0:
b0 ;
1%
#799000
0%
#800000
b1 ;
1%
#801000
0%
#802000
b10 ;
1%
#803000
0%
#804000
b11 ;
1%
#805000
0%
#806000
b100 ;
1%
#807000
0%
#808000
b101 ;
1%
#809000
0%
#810000
b110 ;
1%
#811000
0%
#812000
b111 ;
1%
#813000
0%
#814000
b1000 ;
1%
#815000
0%
#816000
b1001 ;
1%
#817000
0%
#818000
b1010 ;
1%
#819000
0%
#820000
b1011 ;
1%
#821000
0%
#822000
b1100 ;
1%
#823000
0%
#824000
b1101 ;
1%
#825000
0%
#826000
b1110 ;
1%
#827000
0%
#828000
b1111 ;
1%
#829000
0%
#830000
b10000 ;
1%
#831000
0%
#832000
b10001 ;
1%
#833000
0%
#834000
b10010 ;
1%
#835000
0%
#836000
b10011 ;
1%
#837000
0%
#838000
b10100 ;
1%
#839000
0%
#840000
b10101 ;
1%
#841000
0%
#842000
b10110 ;
1%
#843000
0%
#844000
b10111 ;
1%
#845000
0%
#846000
b11000 ;
1%
#847000
0%
#848000
b11001 ;
1%
#849000
0%
#850000
b11010 ;
1%
#851000
0%
#852000
b11011 ;
1%
#853000
0%
#854000
b11100 ;
1%
#855000
0%
#856000
b11101 ;
1%
#857000
0%
#858000
b11110 ;
1%
#859000
0%
#860000
b11111 ;
1%
#861000
0%
#862000
b100000 ;
1%
#863000
0%
#864000
b100001 ;
1%
#865000
0%
#866000
b100010 ;
1%
#867000
0%
#868000
b100011 ;
1%
#869000
0%
#870000
b100100 ;
1%
#871000
0%
#872000
b100101 ;
1%
#873000
0%
#874000
b100110 ;
1%
#875000
0%
#876000
b100111 ;
1%
#877000
0%
#878000
b101000 ;
1%
#879000
0%
#880000
b101001 ;
1%
#881000
0%
#882000
b101010 ;
1%
#883000
0%
#884000
b101011 ;
1%
#885000
0%
#886000
b101100 ;
1%
#887000
0%
#888000
b101101 ;
1%
#889000
0%
#890000
b101110 ;
1%
#891000
0%
#892000
b101111 ;
1%
#893000
0%
#894000
b110000 ;
1%
#895000
0%
#896000
b110001 ;
1%
#897000
0%
#898000
b110010 ;
1%
#899000
0%
#900000
b110011 ;
1%
#901000
0%
#902000
b110100 ;
1%
#903000
0%
#904000
b110101 ;
1%
#905000
0%
#906000
b110110 ;
1%
#907000
0%
#908000
b110111 ;
1%
#909000
0%
#910000
b111000 ;
1%
#911000
0%
#912000
b111001 ;
1%
#913000
0%
#914000
b111010 ;
1%
#915000
0%
#916000
b111011 ;
1%
#917000
0%
#918000
b111100 ;
1%
#919000
0%
#920000
b111101 ;
1%
#921000
0%
#922000
b111110 ;
1%
#923000
0%
#924000
b111111 ;
1%
#925000
0%
#926000
b1000000 ;
1%
#927000
0%
#928000
b1000001 ;
1%
#929000
0%
#930000
b1000010 ;
1%
#931000
0%
#932000
b1000011 ;
1%
#933000
0%
#934000
b1000100 ;
1%
#935000
0%
#936000
b1000101 ;
1%
#937000
0%
#938000
b1000110 ;
1%
#939000
0%
#940000
b1000111 ;
1%
#941000
0%
#942000
b1001000 ;
1%
#943000
0%
#944000
b1001001 ;
1%
#945000
0%
#946000
b1001010 ;
1%
#947000
0%
#948000
b1001011 ;
1%
#949000
0%
#950000
b1001100 ;
1%
#951000
0%
#952000
b1001101 ;
1%
#953000
0%
#954000
b1001110 ;
1%
#955000
0%
#956000
b1001111 ;
1%
#957000
0%
#958000
b1010000 ;
1%
#959000
0%
#960000
b1010001 ;
1%
#961000
0%
#962000
b1010010 ;
1%
#963000
0%
#964000
b1010011 ;
1%
#965000
0%
#966000
b1010100 ;
1%
#967000
0%
#968000
b1010101 ;
1%
#969000
0%
#970000
b1010110 ;
1%
#971000
0%
#972000
b1010111 ;
1%
#973000
0%
#974000
b1011000 ;
1%
#975000
0%
#976000
b1011001 ;
1%
#977000
0%
#978000
b1011010 ;
1%
#979000
0%
#980000
b1011011 ;
1%
#981000
0%
#982000
b1011100 ;
1%
#983000
0%
#984000
b1011101 ;
1%
#985000
0%
#986000
b1011110 ;
1%
#987000
0%
#988000
b1011111 ;
1%
#989000
0%
#990000
b1100000 ;
1%
#991000
0%
#992000
b1100001 ;
1%
#993000
0%
#994000
b1100010 ;
1%
#995000
0%
#996000
b1100011 ;
1%
#997000
0%
#998000
b1101101 !
b1101101 .
b1101101 V
b10 ,
b10 H
b10 M
b10 P
b10 S
11
1:
b0 ;
1%
#999000
0%
#1000000
b1 ;
1%
#1001000
0%
#1002000
b10 ;
1%
#1003000
0%
#1004000
b11 ;
1%
#1005000
0%
#1006000
b100 ;
1%
#1007000
0%
#1008000
b101 ;
1%
#1009000
0%
#1010000
b110 ;
1%
#1011000
0%
#1012000
b111 ;
1%
#1013000
0%
#1014000
b1000 ;
1%
#1015000
0%
#1016000
b1001 ;
1%
#1017000
0%
#1018000
b1010 ;
1%
#1019000
0%
#1020000
b1011 ;
1%
#1021000
0%
#1022000
b1100 ;
1%
#1023000
0%
#1024000
b1101 ;
1%
#1025000
0%
#1026000
b1110 ;
1%
#1027000
0%
#1028000
b1111 ;
1%
#1029000
0%
#1030000
b10000 ;
1%
#1031000
0%
#1032000
b10001 ;
1%
#1033000
0%
#1034000
b10010 ;
1%
#1035000
0%
#1036000
b10011 ;
1%
#1037000
0%
#1038000
b10100 ;
1%
#1039000
0%
#1040000
b10101 ;
1%
#1041000
0%
#1042000
b10110 ;
1%
#1043000
0%
#1044000
b10111 ;
1%
#1045000
0%
#1046000
b11000 ;
1%
#1047000
0%
#1048000
b11001 ;
1%
#1049000
0%
#1050000
b11010 ;
1%
#1051000
0%
#1052000
b11011 ;
1%
#1053000
0%
#1054000
b11100 ;
1%
#1055000
0%
#1056000
b11101 ;
1%
#1057000
0%
#1058000
b11110 ;
1%
#1059000
0%
#1060000
b11111 ;
1%
#1061000
0%
#1062000
b100000 ;
1%
#1063000
0%
#1064000
b100001 ;
1%
#1065000
0%
#1066000
b100010 ;
1%
#1067000
0%
#1068000
b100011 ;
1%
#1069000
0%
#1070000
b100100 ;
1%
#1071000
0%
#1072000
b100101 ;
1%
#1073000
0%
#1074000
b100110 ;
1%
#1075000
0%
#1076000
b100111 ;
1%
#1077000
0%
#1078000
b101000 ;
1%
#1079000
0%
#1080000
b101001 ;
1%
#1081000
0%
#1082000
b101010 ;
1%
#1083000
0%
#1084000
b101011 ;
1%
#1085000
0%
#1086000
b101100 ;
1%
#1087000
0%
#1088000
b101101 ;
1%
#1089000
0%
#1090000
b101110 ;
1%
#1091000
0%
#1092000
b101111 ;
1%
#1093000
0%
#1094000
b110000 ;
1%
#1095000
0%
#1096000
b110001 ;
1%
#1097000
0%
#1098000
b110010 ;
1%
#1099000
0%
#1100000
b110011 ;
1%
#1101000
0%
#1102000
b110100 ;
1%
#1103000
0%
#1104000
b110101 ;
1%
#1105000
0%
#1106000
b110110 ;
1%
#1107000
0%
#1108000
b110111 ;
1%
#1109000
0%
#1110000
b111000 ;
1%
#1111000
0%
#1112000
b111001 ;
1%
#1113000
0%
#1114000
b111010 ;
1%
#1115000
0%
#1116000
b111011 ;
1%
#1117000
0%
